divbasic.vcd
$date
	Tue Mar 07 02:59:40 2023
$end
$version
	Icarus Verilog
$end
$timescale
	100ps
$end
$scope module multdiv_tb $end
$var wire 32 ! result [31:0] $end
$var wire 1 " ready $end
$var wire 1 # except $end
$var reg 1 $ clock $end
$var reg 8 % counter [7:0] $end
$var reg 1 & ctrl_Div $end
$var reg 1 ' ctrl_Mult $end
$var reg 1 ( exp_except $end
$var reg 32 ) exp_result [31:0] $end
$var reg 1 * interrupt $end
$var reg 32 + operandA [31:0] $end
$var reg 32 , operandB [31:0] $end
$var reg 512 - testName [511:0] $end
$var integer 32 . actFile [31:0] $end
$var integer 32 / diffFile [31:0] $end
$var integer 32 0 errors [31:0] $end
$var integer 32 1 expFile [31:0] $end
$var integer 32 2 expScan [31:0] $end
$var integer 32 3 i [31:0] $end
$var integer 32 4 tests [31:0] $end
$scope module tester $end
$var wire 1 $ clock $end
$var wire 1 & ctrl_DIV $end
$var wire 1 ' ctrl_MULT $end
$var wire 32 5 data_operandA [31:0] $end
$var wire 32 6 data_operandB [31:0] $end
$var wire 32 7 remainder [31:0] $end
$var wire 1 " data_resultRDY $end
$var wire 32 8 data_result [31:0] $end
$var wire 1 # data_exception $end
$scope module divider $end
$var wire 32 9 A [31:0] $end
$var wire 32 : B [31:0] $end
$var wire 32 ; D [31:0] $end
$var wire 32 < R [31:0] $end
$var wire 1 $ clk $end
$var wire 1 " ok $end
$var wire 1 = reset $end
$var wire 1 & start $end
$var wire 33 > sub [32:0] $end
$var wire 1 # err $end
$var reg 1 ? active $end
$var reg 5 @ cycle [4:0] $end
$var reg 32 A denom [31:0] $end
$var reg 32 B result [31:0] $end
$var reg 32 C work [31:0] $end
$upscope $end
$upscope $end
$upscope $end
$enddefinitions $end
#0
$dumpvars
bx C
bx B
bx A
bx @
x?
bx >
0=
bx <
bx ;
b0 :
b1 9
bx 8
bx 7
b0 6
b1 5
b1 4
b0 3
b111 2
b10000000000000000000000000000011 1
b0 0
b10000000000000000000000000000101 /
b10000000000000000000000000000100 .
b110010001101001011101100110001001100001011100110110100101100011 -
b0 ,
b1 +
0*
b0 )
1(
0'
1&
b0 %
0$
1#
x"
bx !
$end
#200
0"
b0 >
1?
b0 7
b0 <
b0 C
b0 A
b1 !
b1 8
b1 ;
b1 B
b11111 @
1$
#400
0&
0$
#600
1$
#800
b1 3
0$
#1000
1$
#1200
b10 3
0$
#1400
1$
#1600
b11 3
0$
#1800
1$
#2000
b100 3
0$
#2200
1$
#2400
b101 3
0$
#2600
1$
#2800
b110 3
0$
#3000
1$
#3200
b111 3
0$
#3400
1$
#3600
b1000 3
0$
#3800
1$
#4000
b1001 3
0$
#4200
1$
#4400
b1010 3
0$
#4600
1$
#4800
b1011 3
0$
#5000
1$
#5200
b1100 3
0$
#5400
1$
#5600
b1101 3
0$
#5800
1$
#6000
b1110 3
0$
#6200
1$
#6400
b1111 3
0$
#6600
1$
#6800
b10000 3
0$
#7000
1$
#7200
b10001 3
0$
#7400
1$
#7600
b10010 3
0$
#7800
1$
#8000
b10011 3
0$
#8200
1$
#8400
b10100 3
0$
#8600
1$
#8800
b10101 3
0$
#9000
1$
#9200
b10110 3
0$
#9400
1$
#9600
b10111 3
0$
#9800
1$
#10000
b11000 3
0$
#10200
1$
#10400
b11001 3
0$
#10600
1$
#10800
b11010 3
0$
#11000
1$
#11200
b11011 3
0$
#11400
1$
#11600
b11100 3
0$
#11800
1$
#12000
b11101 3
0$
#12200
1$
#12400
b11110 3
0$
#12600
1$
#12800
b11111 3
0$
#13000
1$
#13200
b100000 3
0$
#13400
1$
#13600
b100001 3
0$
#13800
1$
#14000
b100010 3
0$
#14200
1$
#14400
b100011 3
0$
#14600
1$
#14800
b100100 3
0$
#15000
1$
#15200
b100101 3
0$
#15400
1$
#15600
b100110 3
0$
#15800
1$
#16000
b100111 3
0$
#16200
1$
#16400
b101000 3
0$
#16600
1$
#16800
b101001 3
0$
#17000
1$
#17200
b101010 3
0$
#17400
1$
#17600
b101011 3
0$
#17800
1$
#18000
b101100 3
0$
#18200
1$
#18400
b101101 3
0$
#18600
1$
#18800
b101110 3
0$
#19000
1$
#19200
b101111 3
0$
#19400
1$
#19600
b110000 3
0$
#19800
1$
#20000
b110001 3
0$
#20200
1$
#20400
b110010 3
0$
#20600
1$
#20800
b110011 3
0$
#21000
1$
#21200
b110100 3
0$
#21400
1$
#21600
b110101 3
0$
#21800
1$
#22000
b110110 3
0$
#22200
1$
#22400
b110111 3
0$
#22600
1$
#22800
b111000 3
0$
#23000
1$
#23200
b111001 3
0$
#23400
1$
#23600
b111010 3
0$
#23800
1$
#24000
b111011 3
0$
#24200
1$
#24400
b111100 3
0$
#24600
1$
#24800
b111101 3
0$
#25000
1$
#25200
b111110 3
0$
#25400
1$
#25600
b111111 3
0$
#25800
1$
#26000
b1000000 3
0$
#26200
1$
#26400
b1000001 3
0$
#26600
1$
#26800
b1000010 3
0$
#27000
1$
#27200
b1000011 3
0$
#27400
1$
#27600
b1000100 3
0$
#27800
1$
#28000
b1000101 3
0$
#28200
1$
#28400
b1000110 3
0$
#28600
1$
#28800
b1000111 3
0$
#29000
1$
#29200
b1001000 3
0$
#29400
1$
#29600
b1001001 3
0$
#29800
1$
#30000
b1001010 3
0$
#30200
1$
#30400
b1001011 3
0$
#30600
1$
#30800
b1001100 3
0$
#31000
1$
#31200
b1001101 3
0$
#31400
1$
#31600
b1001110 3
0$
#31800
1$
#32000
b1001111 3
0$
#32200
1$
#32400
b1010000 3
0$
#32600
1$
#32800
b1010001 3
0$
#33000
1$
#33200
b1010010 3
0$
#33400
1$
#33600
b1010011 3
0$
#33800
1$
#34000
b1010100 3
0$
#34200
1$
#34400
b1010101 3
0$
#34600
1$
#34800
b1010110 3
0$
#35000
1$
#35200
b1010111 3
0$
#35400
1$
#35600
b1011000 3
0$
#35800
1$
#36000
b1011001 3
0$
#36200
1$
#36400
b1011010 3
0$
#36600
1$
#36800
b1011011 3
0$
#37000
1$
#37200
b1011100 3
0$
#37400
1$
#37600
b1011101 3
0$
#37800
1$
#38000
b1011110 3
0$
#38200
1$
#38400
b1011111 3
0$
#38600
1$
#38800
b1100000 3
0$
#39000
1$
#39200
b1100001 3
0$
#39400
1$
#39600
b1100010 3
0$
#39800
1$
#40000
b1100011 3
0$
#40200
1$
#40400
b1 0
b1100100 3
0$
#40600
1$
#40800
b10 4
0(
1&
0#
b1 ,
b1 6
b1 :
b0 +
b0 5
b0 9
0$
#41000
b11110 @
b11 !
b11 8
b11 ;
b11 B
1$
#41200
b0 3
0&
0$
#41400
1$
#41600
b1 3
0$
#41800
1$
#42000
b10 3
0$
#42200
1$
#42400
b11 3
0$
#42600
1$
#42800
b100 3
0$
#43000
1$
#43200
b101 3
0$
#43400
1$
#43600
b110 3
0$
#43800
1$
#44000
b111 3
0$
#44200
1$
#44400
b1000 3
0$
#44600
1$
#44800
b1001 3
0$
#45000
1$
#45200
b1010 3
0$
#45400
1$
#45600
b1011 3
0$
#45800
1$
#46000
b1100 3
0$
#46200
1$
#46400
b1101 3
0$
#46600
1$
#46800
b1110 3
0$
#47000
1$
#47200
b1111 3
0$
#47400
1$
#47600
b10000 3
0$
#47800
1$
#48000
b10001 3
0$
#48200
1$
#48400
b10010 3
0$
#48600
1$
#48800
b10011 3
0$
#49000
1$
#49200
b10100 3
0$
#49400
1$
#49600
b10101 3
0$
#49800
1$
#50000
b10110 3
0$
#50200
1$
#50400
b10111 3
0$
#50600
1$
#50800
b11000 3
0$
#51000
1$
#51200
b11001 3
0$
#51400
1$
#51600
b11010 3
0$
#51800
1$
#52000
b11011 3
0$
#52200
1$
#52400
b11100 3
0$
#52600
1$
#52800
b11101 3
0$
#53000
1$
#53200
b11110 3
0$
#53400
1$
#53600
b11111 3
0$
#53800
1$
#54000
b100000 3
0$
#54200
1$
#54400
b100001 3
0$
#54600
1$
#54800
b100010 3
0$
#55000
1$
#55200
b100011 3
0$
#55400
1$
#55600
b100100 3
0$
#55800
1$
#56000
b100101 3
0$
#56200
1$
#56400
b100110 3
0$
#56600
1$
#56800
b100111 3
0$
#57000
1$
#57200
b101000 3
0$
#57400
1$
#57600
b101001 3
0$
#57800
1$
#58000
b101010 3
0$
#58200
1$
#58400
b101011 3
0$
#58600
1$
#58800
b101100 3
0$
#59000
1$
#59200
b101101 3
0$
#59400
1$
#59600
b101110 3
0$
#59800
1$
#60000
b101111 3
0$
#60200
1$
#60400
b110000 3
0$
#60600
1$
#60800
b110001 3
0$
#61000
1$
#61200
b110010 3
0$
#61400
1$
#61600
b110011 3
0$
#61800
1$
#62000
b110100 3
0$
#62200
1$
#62400
b110101 3
0$
#62600
1$
#62800
b110110 3
0$
#63000
1$
#63200
b110111 3
0$
#63400
1$
#63600
b111000 3
0$
#63800
1$
#64000
b111001 3
0$
#64200
1$
#64400
b111010 3
0$
#64600
1$
#64800
b111011 3
0$
#65000
1$
#65200
b111100 3
0$
#65400
1$
#65600
b111101 3
0$
#65800
1$
#66000
b111110 3
0$
#66200
1$
#66400
b111111 3
0$
#66600
1$
#66800
b1000000 3
0$
#67000
1$
#67200
b1000001 3
0$
#67400
1$
#67600
b1000010 3
0$
#67800
1$
#68000
b1000011 3
0$
#68200
1$
#68400
b1000100 3
0$
#68600
1$
#68800
b1000101 3
0$
#69000
1$
#69200
b1000110 3
0$
#69400
1$
#69600
b1000111 3
0$
#69800
1$
#70000
b1001000 3
0$
#70200
1$
#70400
b1001001 3
0$
#70600
1$
#70800
b1001010 3
0$
#71000
1$
#71200
b1001011 3
0$
#71400
1$
#71600
b1001100 3
0$
#71800
1$
#72000
b1001101 3
0$
#72200
1$
#72400
b1001110 3
0$
#72600
1$
#72800
b1001111 3
0$
#73000
1$
#73200
b1010000 3
0$
#73400
1$
#73600
b1010001 3
0$
#73800
1$
#74000
b1010010 3
0$
#74200
1$
#74400
b1010011 3
0$
#74600
1$
#74800
b1010100 3
0$
#75000
1$
#75200
b1010101 3
0$
#75400
1$
#75600
b1010110 3
0$
#75800
1$
#76000
b1010111 3
0$
#76200
1$
#76400
b1011000 3
0$
#76600
1$
#76800
b1011001 3
0$
#77000
1$
#77200
b1011010 3
0$
#77400
1$
#77600
b1011011 3
0$
#77800
1$
#78000
b1011100 3
0$
#78200
1$
#78400
b1011101 3
0$
#78600
1$
#78800
b1011110 3
0$
#79000
1$
#79200
b1011111 3
0$
#79400
1$
#79600
b1100000 3
0$
#79800
1$
#80000
b1100001 3
0$
#80200
1$
#80400
b1100010 3
0$
#80600
1$
#80800
b1100011 3
0$
#81000
1$
#81200
b10 0
b1100100 3
0$
#81400
1$
#81600
b11 4
1&
b10 ,
b10 6
b10 :
b1 +
b1 5
b1 9
0$
#81800
b11101 @
b111 !
b111 8
b111 ;
b111 B
1$
#82000
b0 3
0&
0$
#82200
1$
#82400
b1 3
0$
#82600
1$
#82800
b10 3
0$
#83000
1$
#83200
b11 3
0$
#83400
1$
#83600
b100 3
0$
#83800
1$
#84000
b101 3
0$
#84200
1$
#84400
b110 3
0$
#84600
1$
#84800
b111 3
0$
#85000
1$
#85200
b1000 3
0$
#85400
1$
#85600
b1001 3
0$
#85800
1$
#86000
b1010 3
0$
#86200
1$
#86400
b1011 3
0$
#86600
1$
#86800
b1100 3
0$
#87000
1$
#87200
b1101 3
0$
#87400
1$
#87600
b1110 3
0$
#87800
1$
#88000
b1111 3
0$
#88200
1$
#88400
b10000 3
0$
#88600
1$
#88800
b10001 3
0$
#89000
1$
#89200
b10010 3
0$
#89400
1$
#89600
b10011 3
0$
#89800
1$
#90000
b10100 3
0$
#90200
1$
#90400
b10101 3
0$
#90600
1$
#90800
b10110 3
0$
#91000
1$
#91200
b10111 3
0$
#91400
1$
#91600
b11000 3
0$
#91800
1$
#92000
b11001 3
0$
#92200
1$
#92400
b11010 3
0$
#92600
1$
#92800
b11011 3
0$
#93000
1$
#93200
b11100 3
0$
#93400
1$
#93600
b11101 3
0$
#93800
1$
#94000
b11110 3
0$
#94200
1$
#94400
b11111 3
0$
#94600
1$
#94800
b100000 3
0$
#95000
1$
#95200
b100001 3
0$
#95400
1$
#95600
b100010 3
0$
#95800
1$
#96000
b100011 3
0$
#96200
1$
#96400
b100100 3
0$
#96600
1$
#96800
b100101 3
0$
#97000
1$
#97200
b100110 3
0$
#97400
1$
#97600
b100111 3
0$
#97800
1$
#98000
b101000 3
0$
#98200
1$
#98400
b101001 3
0$
#98600
1$
#98800
b101010 3
0$
#99000
1$
#99200
b101011 3
0$
#99400
1$
#99600
b101100 3
0$
#99800
1$
#100000
b101101 3
0$
#100200
1$
#100400
b101110 3
0$
#100600
1$
#100800
b101111 3
0$
#101000
1$
#101200
b110000 3
0$
#101400
1$
#101600
b110001 3
0$
#101800
1$
#102000
b110010 3
0$
#102200
1$
#102400
b110011 3
0$
#102600
1$
#102800
b110100 3
0$
#103000
1$
#103200
b110101 3
0$
#103400
1$
#103600
b110110 3
0$
#103800
1$
#104000
b110111 3
0$
#104200
1$
#104400
b111000 3
0$
#104600
1$
#104800
b111001 3
0$
#105000
1$
#105200
b111010 3
0$
#105400
1$
#105600
b111011 3
0$
#105800
1$
#106000
b111100 3
0$
#106200
1$
#106400
b111101 3
0$
#106600
1$
#106800
b111110 3
0$
#107000
1$
#107200
b111111 3
0$
#107400
1$
#107600
b1000000 3
0$
#107800
1$
#108000
b1000001 3
0$
#108200
1$
#108400
b1000010 3
0$
#108600
1$
#108800
b1000011 3
0$
#109000
1$
#109200
b1000100 3
0$
#109400
1$
#109600
b1000101 3
0$
#109800
1$
#110000
b1000110 3
0$
#110200
1$
#110400
b1000111 3
0$
#110600
1$
#110800
b1001000 3
0$
#111000
1$
#111200
b1001001 3
0$
#111400
1$
#111600
b1001010 3
0$
#111800
1$
#112000
b1001011 3
0$
#112200
1$
#112400
b1001100 3
0$
#112600
1$
#112800
b1001101 3
0$
#113000
1$
#113200
b1001110 3
0$
#113400
1$
#113600
b1001111 3
0$
#113800
1$
#114000
b1010000 3
0$
#114200
1$
#114400
b1010001 3
0$
#114600
1$
#114800
b1010010 3
0$
#115000
1$
#115200
b1010011 3
0$
#115400
1$
#115600
b1010100 3
0$
#115800
1$
#116000
b1010101 3
0$
#116200
1$
#116400
b1010110 3
0$
#116600
1$
#116800
b1010111 3
0$
#117000
1$
#117200
b1011000 3
0$
#117400
1$
#117600
b1011001 3
0$
#117800
1$
#118000
b1011010 3
0$
#118200
1$
#118400
b1011011 3
0$
#118600
1$
#118800
b1011100 3
0$
#119000
1$
#119200
b1011101 3
0$
#119400
1$
#119600
b1011110 3
0$
#119800
1$
#120000
b1011111 3
0$
#120200
1$
#120400
b1100000 3
0$
#120600
1$
#120800
b1100001 3
0$
#121000
1$
#121200
b1100010 3
0$
#121400
1$
#121600
b1100011 3
0$
#121800
1$
#122000
b11 0
b1100100 3
0$
#122200
1$
#122400
b100 4
1&
b11111111111111111111111111111100 ,
b11111111111111111111111111111100 6
b11111111111111111111111111111100 :
b10 +
b10 5
b10 9
0$
#122600
b11100 @
b1111 !
b1111 8
b1111 ;
b1111 B
1$
#122800
b0 3
0&
0$
#123000
1$
#123200
b1 3
0$
#123400
1$
#123600
b10 3
0$
#123800
1$
#124000
b11 3
0$
#124200
1$
#124400
b100 3
0$
#124600
1$
#124800
b101 3
0$
#125000
1$
#125200
b110 3
0$
#125400
1$
#125600
b111 3
0$
#125800
1$
#126000
b1000 3
0$
#126200
1$
#126400
b1001 3
0$
#126600
1$
#126800
b1010 3
0$
#127000
1$
#127200
b1011 3
0$
#127400
1$
#127600
b1100 3
0$
#127800
1$
#128000
b1101 3
0$
#128200
1$
#128400
b1110 3
0$
#128600
1$
#128800
b1111 3
0$
#129000
1$
#129200
b10000 3
0$
#129400
1$
#129600
b10001 3
0$
#129800
1$
#130000
b10010 3
0$
#130200
1$
#130400
b10011 3
0$
#130600
1$
#130800
b10100 3
0$
#131000
1$
#131200
b10101 3
0$
#131400
1$
#131600
b10110 3
0$
#131800
1$
#132000
b10111 3
0$
#132200
1$
#132400
b11000 3
0$
#132600
1$
#132800
b11001 3
0$
#133000
1$
#133200
b11010 3
0$
#133400
1$
#133600
b11011 3
0$
#133800
1$
#134000
b11100 3
0$
#134200
1$
#134400
b11101 3
0$
#134600
1$
#134800
b11110 3
0$
#135000
1$
#135200
b11111 3
0$
#135400
1$
#135600
b100000 3
0$
#135800
1$
#136000
b100001 3
0$
#136200
1$
#136400
b100010 3
0$
#136600
1$
#136800
b100011 3
0$
#137000
1$
#137200
b100100 3
0$
#137400
1$
#137600
b100101 3
0$
#137800
1$
#138000
b100110 3
0$
#138200
1$
#138400
b100111 3
0$
#138600
1$
#138800
b101000 3
0$
#139000
1$
#139200
b101001 3
0$
#139400
1$
#139600
b101010 3
0$
#139800
1$
#140000
b101011 3
0$
#140200
1$
#140400
b101100 3
0$
#140600
1$
#140800
b101101 3
0$
#141000
1$
#141200
b101110 3
0$
#141400
1$
#141600
b101111 3
0$
#141800
1$
#142000
b110000 3
0$
#142200
1$
#142400
b110001 3
0$
#142600
1$
#142800
b110010 3
0$
#143000
1$
#143200
b110011 3
0$
#143400
1$
#143600
b110100 3
0$
#143800
1$
#144000
b110101 3
0$
#144200
1$
#144400
b110110 3
0$
#144600
1$
#144800
b110111 3
0$
#145000
1$
#145200
b111000 3
0$
#145400
1$
#145600
b111001 3
0$
#145800
1$
#146000
b111010 3
0$
#146200
1$
#146400
b111011 3
0$
#146600
1$
#146800
b111100 3
0$
#147000
1$
#147200
b111101 3
0$
#147400
1$
#147600
b111110 3
0$
#147800
1$
#148000
b111111 3
0$
#148200
1$
#148400
b1000000 3
0$
#148600
1$
#148800
b1000001 3
0$
#149000
1$
#149200
b1000010 3
0$
#149400
1$
#149600
b1000011 3
0$
#149800
1$
#150000
b1000100 3
0$
#150200
1$
#150400
b1000101 3
0$
#150600
1$
#150800
b1000110 3
0$
#151000
1$
#151200
b1000111 3
0$
#151400
1$
#151600
b1001000 3
0$
#151800
1$
#152000
b1001001 3
0$
#152200
1$
#152400
b1001010 3
0$
#152600
1$
#152800
b1001011 3
0$
#153000
1$
#153200
b1001100 3
0$
#153400
1$
#153600
b1001101 3
0$
#153800
1$
#154000
b1001110 3
0$
#154200
1$
#154400
b1001111 3
0$
#154600
1$
#154800
b1010000 3
0$
#155000
1$
#155200
b1010001 3
0$
#155400
1$
#155600
b1010010 3
0$
#155800
1$
#156000
b1010011 3
0$
#156200
1$
#156400
b1010100 3
0$
#156600
1$
#156800
b1010101 3
0$
#157000
1$
#157200
b1010110 3
0$
#157400
1$
#157600
b1010111 3
0$
#157800
1$
#158000
b1011000 3
0$
#158200
1$
#158400
b1011001 3
0$
#158600
1$
#158800
b1011010 3
0$
#159000
1$
#159200
b1011011 3
0$
#159400
1$
#159600
b1011100 3
0$
#159800
1$
#160000
b1011101 3
0$
#160200
1$
#160400
b1011110 3
0$
#160600
1$
#160800
b1011111 3
0$
#161000
1$
#161200
b1100000 3
0$
#161400
1$
#161600
b1100001 3
0$
#161800
1$
#162000
b1100010 3
0$
#162200
1$
#162400
b1100011 3
0$
#162600
1$
#162800
b100 0
b1100100 3
0$
#163000
1$
#163200
b101 4
b10 )
1&
b1 ,
b1 6
b1 :
0$
#163400
b11011 @
b11111 !
b11111 8
b11111 ;
b11111 B
1$
#163600
b0 3
0&
0$
#163800
1$
#164000
b1 3
0$
#164200
1$
#164400
b10 3
0$
#164600
1$
#164800
b11 3
0$
#165000
1$
#165200
b100 3
0$
#165400
1$
#165600
b101 3
0$
#165800
1$
#166000
b110 3
0$
#166200
1$
#166400
b111 3
0$
#166600
1$
#166800
b1000 3
0$
#167000
1$
#167200
b1001 3
0$
#167400
1$
#167600
b1010 3
0$
#167800
1$
#168000
b1011 3
0$
#168200
1$
#168400
b1100 3
0$
#168600
1$
#168800
b1101 3
0$
#169000
1$
#169200
b1110 3
0$
#169400
1$
#169600
b1111 3
0$
#169800
1$
#170000
b10000 3
0$
#170200
1$
#170400
b10001 3
0$
#170600
1$
#170800
b10010 3
0$
#171000
1$
#171200
b10011 3
0$
#171400
1$
#171600
b10100 3
0$
#171800
1$
#172000
b10101 3
0$
#172200
1$
#172400
b10110 3
0$
#172600
1$
#172800
b10111 3
0$
#173000
1$
#173200
b11000 3
0$
#173400
1$
#173600
b11001 3
0$
#173800
1$
#174000
b11010 3
0$
#174200
1$
#174400
b11011 3
0$
#174600
1$
#174800
b11100 3
0$
#175000
1$
#175200
b11101 3
0$
#175400
1$
#175600
b11110 3
0$
#175800
1$
#176000
b11111 3
0$
#176200
1$
#176400
b100000 3
0$
#176600
1$
#176800
b100001 3
0$
#177000
1$
#177200
b100010 3
0$
#177400
1$
#177600
b100011 3
0$
#177800
1$
#178000
b100100 3
0$
#178200
1$
#178400
b100101 3
0$
#178600
1$
#178800
b100110 3
0$
#179000
1$
#179200
b100111 3
0$
#179400
1$
#179600
b101000 3
0$
#179800
1$
#180000
b101001 3
0$
#180200
1$
#180400
b101010 3
0$
#180600
1$
#180800
b101011 3
0$
#181000
1$
#181200
b101100 3
0$
#181400
1$
#181600
b101101 3
0$
#181800
1$
#182000
b101110 3
0$
#182200
1$
#182400
b101111 3
0$
#182600
1$
#182800
b110000 3
0$
#183000
1$
#183200
b110001 3
0$
#183400
1$
#183600
b110010 3
0$
#183800
1$
#184000
b110011 3
0$
#184200
1$
#184400
b110100 3
0$
#184600
1$
#184800
b110101 3
0$
#185000
1$
#185200
b110110 3
0$
#185400
1$
#185600
b110111 3
0$
#185800
1$
#186000
b111000 3
0$
#186200
1$
#186400
b111001 3
0$
#186600
1$
#186800
b111010 3
0$
#187000
1$
#187200
b111011 3
0$
#187400
1$
#187600
b111100 3
0$
#187800
1$
#188000
b111101 3
0$
#188200
1$
#188400
b111110 3
0$
#188600
1$
#188800
b111111 3
0$
#189000
1$
#189200
b1000000 3
0$
#189400
1$
#189600
b1000001 3
0$
#189800
1$
#190000
b1000010 3
0$
#190200
1$
#190400
b1000011 3
0$
#190600
1$
#190800
b1000100 3
0$
#191000
1$
#191200
b1000101 3
0$
#191400
1$
#191600
b1000110 3
0$
#191800
1$
#192000
b1000111 3
0$
#192200
1$
#192400
b1001000 3
0$
#192600
1$
#192800
b1001001 3
0$
#193000
1$
#193200
b1001010 3
0$
#193400
1$
#193600
b1001011 3
0$
#193800
1$
#194000
b1001100 3
0$
#194200
1$
#194400
b1001101 3
0$
#194600
1$
#194800
b1001110 3
0$
#195000
1$
#195200
b1001111 3
0$
#195400
1$
#195600
b1010000 3
0$
#195800
1$
#196000
b1010001 3
0$
#196200
1$
#196400
b1010010 3
0$
#196600
1$
#196800
b1010011 3
0$
#197000
1$
#197200
b1010100 3
0$
#197400
1$
#197600
b1010101 3
0$
#197800
1$
#198000
b1010110 3
0$
#198200
1$
#198400
b1010111 3
0$
#198600
1$
#198800
b1011000 3
0$
#199000
1$
#199200
b1011001 3
0$
#199400
1$
#199600
b1011010 3
0$
#199800
1$
#200000
b1011011 3
0$
#200200
1$
#200400
b1011100 3
0$
#200600
1$
#200800
b1011101 3
0$
#201000
1$
#201200
b1011110 3
0$
#201400
1$
#201600
b1011111 3
0$
#201800
1$
#202000
b1100000 3
0$
#202200
1$
#202400
b1100001 3
0$
#202600
1$
#202800
b1100010 3
0$
#203000
1$
#203200
b1100011 3
0$
#203400
1$
#203600
b101 0
b1100100 3
0$
#203800
1$
#204000
b110 4
b11111111111111111111111111111110 )
1&
b10 ,
b10 6
b10 :
b11111111111111111111111111111100 +
b11111111111111111111111111111100 5
b11111111111111111111111111111100 9
0$
#204200
b11010 @
b111111 !
b111111 8
b111111 ;
b111111 B
1$
#204400
b0 3
0&
0$
#204600
1$
#204800
b1 3
0$
#205000
1$
#205200
b10 3
0$
#205400
1$
#205600
b11 3
0$
#205800
1$
#206000
b100 3
0$
#206200
1$
#206400
b101 3
0$
#206600
1$
#206800
b110 3
0$
#207000
1$
#207200
b111 3
0$
#207400
1$
#207600
b1000 3
0$
#207800
1$
#208000
b1001 3
0$
#208200
1$
#208400
b1010 3
0$
#208600
1$
#208800
b1011 3
0$
#209000
1$
#209200
b1100 3
0$
#209400
1$
#209600
b1101 3
0$
#209800
1$
#210000
b1110 3
0$
#210200
1$
#210400
b1111 3
0$
#210600
1$
#210800
b10000 3
0$
#211000
1$
#211200
b10001 3
0$
#211400
1$
#211600
b10010 3
0$
#211800
1$
#212000
b10011 3
0$
#212200
1$
#212400
b10100 3
0$
#212600
1$
#212800
b10101 3
0$
#213000
1$
#213200
b10110 3
0$
#213400
1$
#213600
b10111 3
0$
#213800
1$
#214000
b11000 3
0$
#214200
1$
#214400
b11001 3
0$
#214600
1$
#214800
b11010 3
0$
#215000
1$
#215200
b11011 3
0$
#215400
1$
#215600
b11100 3
0$
#215800
1$
#216000
b11101 3
0$
#216200
1$
#216400
b11110 3
0$
#216600
1$
#216800
b11111 3
0$
#217000
1$
#217200
b100000 3
0$
#217400
1$
#217600
b100001 3
0$
#217800
1$
#218000
b100010 3
0$
#218200
1$
#218400
b100011 3
0$
#218600
1$
#218800
b100100 3
0$
#219000
1$
#219200
b100101 3
0$
#219400
1$
#219600
b100110 3
0$
#219800
1$
#220000
b100111 3
0$
#220200
1$
#220400
b101000 3
0$
#220600
1$
#220800
b101001 3
0$
#221000
1$
#221200
b101010 3
0$
#221400
1$
#221600
b101011 3
0$
#221800
1$
#222000
b101100 3
0$
#222200
1$
#222400
b101101 3
0$
#222600
1$
#222800
b101110 3
0$
#223000
1$
#223200
b101111 3
0$
#223400
1$
#223600
b110000 3
0$
#223800
1$
#224000
b110001 3
0$
#224200
1$
#224400
b110010 3
0$
#224600
1$
#224800
b110011 3
0$
#225000
1$
#225200
b110100 3
0$
#225400
1$
#225600
b110101 3
0$
#225800
1$
#226000
b110110 3
0$
#226200
1$
#226400
b110111 3
0$
#226600
1$
#226800
b111000 3
0$
#227000
1$
#227200
b111001 3
0$
#227400
1$
#227600
b111010 3
0$
#227800
1$
#228000
b111011 3
0$
#228200
1$
#228400
b111100 3
0$
#228600
1$
#228800
b111101 3
0$
#229000
1$
#229200
b111110 3
0$
#229400
1$
#229600
b111111 3
0$
#229800
1$
#230000
b1000000 3
0$
#230200
1$
#230400
b1000001 3
0$
#230600
1$
#230800
b1000010 3
0$
#231000
1$
#231200
b1000011 3
0$
#231400
1$
#231600
b1000100 3
0$
#231800
1$
#232000
b1000101 3
0$
#232200
1$
#232400
b1000110 3
0$
#232600
1$
#232800
b1000111 3
0$
#233000
1$
#233200
b1001000 3
0$
#233400
1$
#233600
b1001001 3
0$
#233800
1$
#234000
b1001010 3
0$
#234200
1$
#234400
b1001011 3
0$
#234600
1$
#234800
b1001100 3
0$
#235000
1$
#235200
b1001101 3
0$
#235400
1$
#235600
b1001110 3
0$
#235800
1$
#236000
b1001111 3
0$
#236200
1$
#236400
b1010000 3
0$
#236600
1$
#236800
b1010001 3
0$
#237000
1$
#237200
b1010010 3
0$
#237400
1$
#237600
b1010011 3
0$
#237800
1$
#238000
b1010100 3
0$
#238200
1$
#238400
b1010101 3
0$
#238600
1$
#238800
b1010110 3
0$
#239000
1$
#239200
b1010111 3
0$
#239400
1$
#239600
b1011000 3
0$
#239800
1$
#240000
b1011001 3
0$
#240200
1$
#240400
b1011010 3
0$
#240600
1$
#240800
b1011011 3
0$
#241000
1$
#241200
b1011100 3
0$
#241400
1$
#241600
b1011101 3
0$
#241800
1$
#242000
b1011110 3
0$
#242200
1$
#242400
b1011111 3
0$
#242600
1$
#242800
b1100000 3
0$
#243000
1$
#243200
b1100001 3
0$
#243400
1$
#243600
b1100010 3
0$
#243800
1$
#244000
b1100011 3
0$
#244200
1$
#244400
b110 0
b1100100 3
0$
#244600
1$
#244800
b111 4
b10 )
1&
b100 ,
b100 6
b100 :
b1000 +
b1000 5
b1000 9
0$
#245000
b11001 @
b1111111 !
b1111111 8
b1111111 ;
b1111111 B
1$
#245200
b0 3
0&
0$
#245400
1$
#245600
b1 3
0$
#245800
1$
#246000
b10 3
0$
#246200
1$
#246400
b11 3
0$
#246600
1$
#246800
b100 3
0$
#247000
1$
#247200
b101 3
0$
#247400
1$
#247600
b110 3
0$
#247800
1$
#248000
b111 3
0$
#248200
1$
#248400
b1000 3
0$
#248600
1$
#248800
b1001 3
0$
#249000
1$
#249200
b1010 3
0$
#249400
1$
#249600
b1011 3
0$
#249800
1$
#250000
b1100 3
0$
#250200
1$
#250400
b1101 3
0$
#250600
1$
#250800
b1110 3
0$
#251000
1$
#251200
b1111 3
0$
#251400
1$
#251600
b10000 3
0$
#251800
1$
#252000
b10001 3
0$
#252200
1$
#252400
b10010 3
0$
#252600
1$
#252800
b10011 3
0$
#253000
1$
#253200
b10100 3
0$
#253400
1$
#253600
b10101 3
0$
#253800
1$
#254000
b10110 3
0$
#254200
1$
#254400
b10111 3
0$
#254600
1$
#254800
b11000 3
0$
#255000
1$
#255200
b11001 3
0$
#255400
1$
#255600
b11010 3
0$
#255800
1$
#256000
b11011 3
0$
#256200
1$
#256400
b11100 3
0$
#256600
1$
#256800
b11101 3
0$
#257000
1$
#257200
b11110 3
0$
#257400
1$
#257600
b11111 3
0$
#257800
1$
#258000
b100000 3
0$
#258200
1$
#258400
b100001 3
0$
#258600
1$
#258800
b100010 3
0$
#259000
1$
#259200
b100011 3
0$
#259400
1$
#259600
b100100 3
0$
#259800
1$
#260000
b100101 3
0$
#260200
1$
#260400
b100110 3
0$
#260600
1$
#260800
b100111 3
0$
#261000
1$
#261200
b101000 3
0$
#261400
1$
#261600
b101001 3
0$
#261800
1$
#262000
b101010 3
0$
#262200
1$
#262400
b101011 3
0$
#262600
1$
#262800
b101100 3
0$
#263000
1$
#263200
b101101 3
0$
#263400
1$
