divbasic.vcd
$date
	Tue Mar  7 01:14:24 2023
$end
$version
	Icarus Verilog
$end
$timescale
	100ps
$end
$scope module multdiv_tb $end
$var wire 32 ! result [31:0] $end
$var wire 1 " ready $end
$var wire 1 # except $end
$var reg 1 $ clock $end
$var reg 8 % counter [7:0] $end
$var reg 1 & ctrl_Div $end
$var reg 1 ' ctrl_Mult $end
$var reg 1 ( exp_except $end
$var reg 32 ) exp_result [31:0] $end
$var reg 1 * interrupt $end
$var reg 32 + operandA [31:0] $end
$var reg 32 , operandB [31:0] $end
$var reg 512 - testName [511:0] $end
$var integer 32 . actFile [31:0] $end
$var integer 32 / diffFile [31:0] $end
$var integer 32 0 errors [31:0] $end
$var integer 32 1 expFile [31:0] $end
$var integer 32 2 expScan [31:0] $end
$var integer 32 3 i [31:0] $end
$var integer 32 4 tests [31:0] $end
$scope module tester $end
$var wire 1 $ clock $end
$var wire 1 & ctrl_DIV $end
$var wire 1 ' ctrl_MULT $end
$var wire 32 5 data_operandA [31:0] $end
$var wire 32 6 data_operandB [31:0] $end
$var wire 32 7 remainder [31:0] $end
$var wire 1 " data_resultRDY $end
$var wire 32 8 data_result [31:0] $end
$var wire 1 # data_exception $end
$scope module divider $end
$var wire 32 9 A [31:0] $end
$var wire 32 : B [31:0] $end
$var wire 32 ; R [31:0] $end
$var wire 1 $ clk $end
$var wire 1 " ok $end
$var wire 1 < reset $end
$var wire 1 & start $end
$var wire 1 = twosComp $end
$var wire 1 # err $end
$var wire 64 > compRes [63:0] $end
$var wire 32 ? b [31:0] $end
$var wire 64 @ ans [63:0] $end
$var wire 32 A a [31:0] $end
$var wire 32 B D [31:0] $end
$var reg 32 C addReg [31:0] $end
$var reg 64 D aq [63:0] $end
$var reg 1 E done $end
$var reg 32 F m [31:0] $end
$var reg 32 G mComp [31:0] $end
$var reg 5 H n [4:0] $end
$var reg 32 I result [31:0] $end
$var reg 1 J running $end
$var reg 32 K subReg [31:0] $end
$var reg 32 L work [31:0] $end
$upscope $end
$upscope $end
$upscope $end
$enddefinitions $end
#0
$dumpvars
bx L
bx K
xJ
bx I
bx H
bx G
bx F
xE
bx D
bx C
b0 B
b1 A
bx @
b0 ?
b0xxxxxxxxxxxxxxxxxxxxxxxxxxxxxxxx >
0=
0<
bx ;
b0 :
b1 9
b0 8
bx 7
b0 6
b1 5
b1 4
b0 3
b111 2
b10000000000000000000000000000011 1
b0 0
b10000000000000000000000000000101 /
b10000000000000000000000000000100 .
b110010001101001011101100110001001100001011100110110100101100011 -
b0 ,
b1 +
0*
b0 )
1(
0'
1&
b0 %
0$
1#
x"
b0 !
$end
#200
b0 C
b0 K
0"
0E
1J
b11110 H
b11 D
b0 G
b0 F
1$
#400
0&
0$
#600
b11101 H
b111 D
1$
#800
b1 3
0$
#1000
b11100 H
b1111 D
1$
#1200
b10 3
0$
#1400
b11011 H
b11111 D
1$
#1600
b11 3
0$
#1800
b11010 H
b111111 D
1$
#2000
b100 3
0$
#2200
b11001 H
b1111111 D
1$
#2400
b101 3
0$
#2600
b11000 H
b11111111 D
1$
#2800
b110 3
0$
#3000
b10111 H
b111111111 D
1$
#3200
b111 3
0$
#3400
b10110 H
b1111111111 D
1$
#3600
b1000 3
0$
#3800
b10101 H
b11111111111 D
1$
#4000
b1001 3
0$
#4200
b10100 H
b111111111111 D
1$
#4400
b1010 3
0$
#4600
b10011 H
b1111111111111 D
1$
#4800
b1011 3
0$
#5000
b10010 H
b11111111111111 D
1$
#5200
b1100 3
0$
#5400
b10001 H
b111111111111111 D
1$
#5600
b1101 3
0$
#5800
b10000 H
b1111111111111111 D
1$
#6000
b1110 3
0$
#6200
b1111 H
b11111111111111111 D
1$
#6400
b1111 3
0$
#6600
b1110 H
b111111111111111111 D
1$
#6800
b10000 3
0$
#7000
b1101 H
b1111111111111111111 D
1$
#7200
b10001 3
0$
#7400
b1100 H
b11111111111111111111 D
1$
#7600
b10010 3
0$
#7800
b1011 H
b111111111111111111111 D
1$
#8000
b10011 3
0$
#8200
b1010 H
b1111111111111111111111 D
1$
#8400
b10100 3
0$
#8600
b1001 H
b11111111111111111111111 D
1$
#8800
b10101 3
0$
#9000
b1000 H
b111111111111111111111111 D
1$
#9200
b10110 3
0$
#9400
b111 H
b1111111111111111111111111 D
1$
#9600
b10111 3
0$
#9800
b110 H
b11111111111111111111111111 D
1$
#10000
b11000 3
0$
#10200
b101 H
b111111111111111111111111111 D
1$
#10400
b11001 3
0$
#10600
b100 H
b1111111111111111111111111111 D
1$
#10800
b11010 3
0$
#11000
b11 H
b11111111111111111111111111111 D
1$
#11200
b11011 3
0$
#11400
b10 H
b111111111111111111111111111111 D
1$
#11600
b11100 3
0$
#11800
b1 H
b1111111111111111111111111111111 D
1$
#12000
b11101 3
0$
#12200
b0 H
b11111111111111111111111111111111 D
1$
#12400
b11110 3
0$
#12600
b111111111111111111111111111111110 @
b11111111111111111111111111111111 >
b11111 H
b1 C
b1 K
b111111111111111111111111111111111 D
1"
1E
b11111111111111111111111111111111 I
0J
1$
#12800
b10010111 3
0$
#13000
1$
#13200
b11111111111111111111111111111110 !
b11111111111111111111111111111110 8
b11111111111111111111111111111110 B
b1 ?
0#
b0 A
b10 4
0(
1&
b1 ,
b1 6
b1 :
b0 +
b0 5
b0 9
0$
#13400
b11110 H
b11111111111111111111111111111111 K
0"
0E
1J
b1111111111111111111111111111111100000000000000000000000000000000 D
b11111111111111111111111111111111 G
b1 F
1$
#13600
b0 3
0&
0$
#13800
b11101 H
b11111111111111111111111111111111 C
b11111111111111111111111111111101 K
b1111111111111111111111111111111100000000000000000000000000000000 D
1$
#14000
b1 3
0$
#14200
b11100 H
b1111111111111111111111111111111100000000000000000000000000000000 D
1$
#14400
b10 3
0$
#14600
b11011 H
b1111111111111111111111111111111100000000000000000000000000000000 D
1$
#14800
b11 3
0$
#15000
b11010 H
b1111111111111111111111111111111100000000000000000000000000000000 D
1$
#15200
b100 3
0$
#15400
b11001 H
b1111111111111111111111111111111100000000000000000000000000000000 D
1$
#15600
b101 3
0$
#15800
b11000 H
b1111111111111111111111111111111100000000000000000000000000000000 D
1$
#16000
b110 3
0$
#16200
b10111 H
b1111111111111111111111111111111100000000000000000000000000000000 D
1$
#16400
b111 3
0$
#16600
b10110 H
b1111111111111111111111111111111100000000000000000000000000000000 D
1$
#16800
b1000 3
0$
#17000
b10101 H
b1111111111111111111111111111111100000000000000000000000000000000 D
1$
#17200
b1001 3
0$
#17400
b10100 H
b1111111111111111111111111111111100000000000000000000000000000000 D
1$
#17600
b1010 3
0$
#17800
b10011 H
b1111111111111111111111111111111100000000000000000000000000000000 D
1$
#18000
b1011 3
0$
#18200
b10010 H
b1111111111111111111111111111111100000000000000000000000000000000 D
1$
#18400
b1100 3
0$
#18600
b10001 H
b1111111111111111111111111111111100000000000000000000000000000000 D
1$
#18800
b1101 3
0$
#19000
b10000 H
b1111111111111111111111111111111100000000000000000000000000000000 D
1$
#19200
b1110 3
0$
#19400
b1111 H
b1111111111111111111111111111111100000000000000000000000000000000 D
1$
#19600
b1111 3
0$
#19800
b1110 H
b1111111111111111111111111111111100000000000000000000000000000000 D
1$
#20000
b10000 3
0$
#20200
b1101 H
b1111111111111111111111111111111100000000000000000000000000000000 D
1$
#20400
b10001 3
0$
#20600
b1100 H
b1111111111111111111111111111111100000000000000000000000000000000 D
1$
#20800
b10010 3
0$
#21000
b1011 H
b1111111111111111111111111111111100000000000000000000000000000000 D
1$
#21200
b10011 3
0$
#21400
b1010 H
b1111111111111111111111111111111100000000000000000000000000000000 D
1$
#21600
b10100 3
0$
#21800
b1001 H
b1111111111111111111111111111111100000000000000000000000000000000 D
1$
#22000
b10101 3
0$
#22200
b1000 H
b1111111111111111111111111111111100000000000000000000000000000000 D
1$
#22400
b10110 3
0$
#22600
b111 H
b1111111111111111111111111111111100000000000000000000000000000000 D
1$
#22800
b10111 3
0$
#23000
b110 H
b1111111111111111111111111111111100000000000000000000000000000000 D
1$
#23200
b11000 3
0$
#23400
b101 H
b1111111111111111111111111111111100000000000000000000000000000000 D
1$
#23600
b11001 3
0$
#23800
b100 H
b1111111111111111111111111111111100000000000000000000000000000000 D
1$
#24000
b11010 3
0$
#24200
b11 H
b1111111111111111111111111111111100000000000000000000000000000000 D
1$
#24400
b11011 3
0$
#24600
b10 H
b1111111111111111111111111111111100000000000000000000000000000000 D
1$
#24800
b11100 3
0$
#25000
b1 H
b1111111111111111111111111111111100000000000000000000000000000000 D
1$
#25200
b11101 3
0$
#25400
b0 H
b1111111111111111111111111111111100000000000000000000000000000000 D
1$
#25600
b11110 3
0$
#25800
b0 !
b0 8
b0 B
b0 @
b0 >
b11111 H
b11111111111111111111111111111111 K
1"
1E
b0 I
b1111111111111111111111111111111100000000000000000000000000000000 D
b1 C
0J
1$
#26000
b10010111 3
0$
#26200
1$
#26400
b10 ?
b1 A
b11 4
1&
b10 ,
b10 6
b10 :
b1 +
b1 5
b1 9
0$
#26600
b11110 H
b10 C
b11111111111111111111111111111110 K
0"
0E
1J
b1111111111111111111111111111111000000000000000000000000000000010 D
b11111111111111111111111111111110 G
b10 F
1$
#26800
b0 3
0&
0$
#27000
b11101 H
b11111111111111111111111111111110 C
b11111111111111111111111111111010 K
b1111111111111111111111111111111000000000000000000000000000000100 D
1$
#27200
b1 3
0$
#27400
b11100 H
b1111111111111111111111111111111000000000000000000000000000001000 D
1$
#27600
b10 3
0$
#27800
b11011 H
b1111111111111111111111111111111000000000000000000000000000010000 D
1$
#28000
b11 3
0$
#28200
b11010 H
b1111111111111111111111111111111000000000000000000000000000100000 D
1$
#28400
b100 3
0$
#28600
b11001 H
b1111111111111111111111111111111000000000000000000000000001000000 D
1$
#28800
b101 3
0$
#29000
b11000 H
b1111111111111111111111111111111000000000000000000000000010000000 D
1$
#29200
b110 3
0$
#29400
b10111 H
b1111111111111111111111111111111000000000000000000000000100000000 D
1$
#29600
b111 3
0$
#29800
b10110 H
b1111111111111111111111111111111000000000000000000000001000000000 D
1$
#30000
b1000 3
0$
#30200
b10101 H
b1111111111111111111111111111111000000000000000000000010000000000 D
1$
#30400
b1001 3
0$
#30600
b10100 H
b1111111111111111111111111111111000000000000000000000100000000000 D
1$
#30800
b1010 3
0$
#31000
b10011 H
b1111111111111111111111111111111000000000000000000001000000000000 D
1$
#31200
b1011 3
0$
#31400
b10010 H
b1111111111111111111111111111111000000000000000000010000000000000 D
1$
#31600
b1100 3
0$
#31800
b10001 H
b1111111111111111111111111111111000000000000000000100000000000000 D
1$
#32000
b1101 3
0$
#32200
b10000 H
b1111111111111111111111111111111000000000000000001000000000000000 D
1$
#32400
b1110 3
0$
#32600
b1111 H
b1111111111111111111111111111111000000000000000010000000000000000 D
1$
#32800
b1111 3
0$
#33000
b1110 H
b1111111111111111111111111111111000000000000000100000000000000000 D
1$
#33200
b10000 3
0$
#33400
b1101 H
b1111111111111111111111111111111000000000000001000000000000000000 D
1$
#33600
b10001 3
0$
#33800
b1100 H
b1111111111111111111111111111111000000000000010000000000000000000 D
1$
#34000
b10010 3
0$
#34200
b1011 H
b1111111111111111111111111111111000000000000100000000000000000000 D
1$
#34400
b10011 3
0$
#34600
b1010 H
b1111111111111111111111111111111000000000001000000000000000000000 D
1$
#34800
b10100 3
0$
#35000
b1001 H
b1111111111111111111111111111111000000000010000000000000000000000 D
1$
#35200
b10101 3
0$
#35400
b1000 H
b1111111111111111111111111111111000000000100000000000000000000000 D
1$
#35600
b10110 3
0$
#35800
b111 H
b1111111111111111111111111111111000000001000000000000000000000000 D
1$
#36000
b10111 3
0$
#36200
b110 H
b1111111111111111111111111111111000000010000000000000000000000000 D
1$
#36400
b11000 3
0$
#36600
b101 H
b1111111111111111111111111111111000000100000000000000000000000000 D
1$
#36800
b11001 3
0$
#37000
b100 H
b1111111111111111111111111111111000001000000000000000000000000000 D
1$
#37200
b11010 3
0$
#37400
b11 H
b1111111111111111111111111111111000010000000000000000000000000000 D
1$
#37600
b11011 3
0$
#37800
b10 H
b1111111111111111111111111111111000100000000000000000000000000000 D
1$
#38000
b11100 3
0$
#38200
b1 H
b1111111111111111111111111111111001000000000000000000000000000000 D
1$
#38400
b11101 3
0$
#38600
b0 H
b1111111111111111111111111111111010000000000000000000000000000000 D
1$
#38800
b11110 3
0$
#39000
b100000000000000000000000000000000 @
b10000000000000000000000000000000 >
b11111 H
b11111111111111111111111111111111 K
1"
1E
b10000000000000000000000000000000 I
b1111111111111111111111111111111100000000000000000000000000000000 D
b11 C
0J
1$
#39200
b10010111 3
0$
#39400
1$
#39600
b1111111111111111111111111111111100000000000000000000000000000000 @
b1111111111111111111111111111111110000000000000000000000000000000 >
1=
b100 ?
b10 A
b100 4
1&
b11111111111111111111111111111100 ,
b11111111111111111111111111111100 6
b11111111111111111111111111111100 :
b10 +
b10 5
b10 9
0$
#39800
b11110 H
b100 C
b11111111111111111111111111111100 K
0"
0E
1J
b1111111111111111111111111111110000000000000000000000000000000100 D
b11111111111111111111111111111100 G
b100 F
1$
#40000
b0 3
0&
0$
#40200
b11101 H
b11111111111111111111111111111100 C
b11111111111111111111111111110100 K
b1111111111111111111111111111110000000000000000000000000000001000 D
1$
#40400
b1 3
0$
#40600
b11100 H
b1111111111111111111111111111110000000000000000000000000000010000 D
1$
#40800
b10 3
0$
#41000
b11011 H
b1111111111111111111111111111110000000000000000000000000000100000 D
1$
#41200
b11 3
0$
#41400
b11010 H
b1111111111111111111111111111110000000000000000000000000001000000 D
1$
#41600
b100 3
0$
#41800
b11001 H
b1111111111111111111111111111110000000000000000000000000010000000 D
1$
#42000
b101 3
0$
#42200
b11000 H
b1111111111111111111111111111110000000000000000000000000100000000 D
1$
#42400
b110 3
0$
#42600
b10111 H
b1111111111111111111111111111110000000000000000000000001000000000 D
1$
#42800
b111 3
0$
#43000
b10110 H
b1111111111111111111111111111110000000000000000000000010000000000 D
1$
#43200
b1000 3
0$
#43400
b10101 H
b1111111111111111111111111111110000000000000000000000100000000000 D
1$
#43600
b1001 3
0$
#43800
b10100 H
b1111111111111111111111111111110000000000000000000001000000000000 D
1$
#44000
b1010 3
0$
#44200
b10011 H
b1111111111111111111111111111110000000000000000000010000000000000 D
1$
#44400
b1011 3
0$
#44600
b10010 H
b1111111111111111111111111111110000000000000000000100000000000000 D
1$
#44800
b1100 3
0$
#45000
b10001 H
b1111111111111111111111111111110000000000000000001000000000000000 D
1$
#45200
b1101 3
0$
#45400
b10000 H
b1111111111111111111111111111110000000000000000010000000000000000 D
1$
#45600
b1110 3
0$
#45800
b1111 H
b1111111111111111111111111111110000000000000000100000000000000000 D
1$
#46000
b1111 3
0$
#46200
b1110 H
b1111111111111111111111111111110000000000000001000000000000000000 D
1$
#46400
b10000 3
0$
#46600
b1101 H
b1111111111111111111111111111110000000000000010000000000000000000 D
1$
#46800
b10001 3
0$
#47000
b1100 H
b1111111111111111111111111111110000000000000100000000000000000000 D
1$
#47200
b10010 3
0$
#47400
b1011 H
b1111111111111111111111111111110000000000001000000000000000000000 D
1$
#47600
b10011 3
0$
#47800
b1010 H
b1111111111111111111111111111110000000000010000000000000000000000 D
1$
#48000
b10100 3
0$
#48200
b1001 H
b1111111111111111111111111111110000000000100000000000000000000000 D
1$
#48400
b10101 3
0$
#48600
b1000 H
b1111111111111111111111111111110000000001000000000000000000000000 D
1$
#48800
b10110 3
0$
#49000
b111 H
b1111111111111111111111111111110000000010000000000000000000000000 D
1$
#49200
b10111 3
0$
#49400
b110 H
b1111111111111111111111111111110000000100000000000000000000000000 D
1$
#49600
b11000 3
0$
#49800
b101 H
b1111111111111111111111111111110000001000000000000000000000000000 D
1$
#50000
b11001 3
0$
#50200
b100 H
b1111111111111111111111111111110000010000000000000000000000000000 D
1$
#50400
b11010 3
0$
#50600
b11 H
b1111111111111111111111111111110000100000000000000000000000000000 D
1$
#50800
b11011 3
0$
#51000
b10 H
b1111111111111111111111111111110001000000000000000000000000000000 D
1$
#51200
b11100 3
0$
#51400
b1 H
b1111111111111111111111111111110010000000000000000000000000000000 D
1$
#51600
b11101 3
0$
#51800
b0 H
b11111111111111111111111111111101 C
b11111111111111111111111111110101 K
b1111111111111111111111111111110100000000000000000000000000000000 D
1$
#52000
b11110 3
0$
#52200
b0 @
b0 >
b11111 H
b11111111111111111111111111111110 K
1"
1E
b0 I
b1111111111111111111111111111111000000000000000000000000000000000 D
b110 C
0J
1$
#52400
b10010111 3
0$
#52600
1$
#52800
b1 ?
0=
b101 4
b10 )
1&
b1 ,
b1 6
b1 :
0$
#53000
b11110 H
b1 C
b11111111111111111111111111111111 K
0"
0E
1J
b1111111111111111111111111111111100000000000000000000000000000100 D
b11111111111111111111111111111111 G
b1 F
1$
#53200
b0 3
0&
0$
#53400
b11101 H
b11111111111111111111111111111111 C
b11111111111111111111111111111101 K
b1111111111111111111111111111111100000000000000000000000000001000 D
1$
#53600
b1 3
0$
#53800
b11100 H
b1111111111111111111111111111111100000000000000000000000000010000 D
1$
#54000
b10 3
0$
#54200
b11011 H
b1111111111111111111111111111111100000000000000000000000000100000 D
1$
#54400
b11 3
0$
#54600
b11010 H
b1111111111111111111111111111111100000000000000000000000001000000 D
1$
#54800
b100 3
0$
#55000
b11001 H
b1111111111111111111111111111111100000000000000000000000010000000 D
1$
#55200
b101 3
0$
#55400
b11000 H
b1111111111111111111111111111111100000000000000000000000100000000 D
1$
#55600
b110 3
0$
#55800
b10111 H
b1111111111111111111111111111111100000000000000000000001000000000 D
1$
#56000
b111 3
0$
#56200
b10110 H
b1111111111111111111111111111111100000000000000000000010000000000 D
1$
#56400
b1000 3
0$
#56600
b10101 H
b1111111111111111111111111111111100000000000000000000100000000000 D
1$
#56800
b1001 3
0$
#57000
b10100 H
b1111111111111111111111111111111100000000000000000001000000000000 D
1$
#57200
b1010 3
0$
#57400
b10011 H
b1111111111111111111111111111111100000000000000000010000000000000 D
1$
#57600
b1011 3
0$
#57800
b10010 H
b1111111111111111111111111111111100000000000000000100000000000000 D
1$
#58000
b1100 3
0$
#58200
b10001 H
b1111111111111111111111111111111100000000000000001000000000000000 D
1$
#58400
b1101 3
0$
#58600
b10000 H
b1111111111111111111111111111111100000000000000010000000000000000 D
1$
#58800
b1110 3
0$
#59000
b1111 H
b1111111111111111111111111111111100000000000000100000000000000000 D
1$
#59200
b1111 3
0$
#59400
b1110 H
b1111111111111111111111111111111100000000000001000000000000000000 D
1$
#59600
b10000 3
0$
#59800
b1101 H
b1111111111111111111111111111111100000000000010000000000000000000 D
1$
#60000
b10001 3
0$
#60200
b1100 H
b1111111111111111111111111111111100000000000100000000000000000000 D
1$
#60400
b10010 3
0$
#60600
b1011 H
b1111111111111111111111111111111100000000001000000000000000000000 D
1$
#60800
b10011 3
0$
#61000
b1010 H
b1111111111111111111111111111111100000000010000000000000000000000 D
1$
#61200
b10100 3
0$
#61400
b1001 H
b1111111111111111111111111111111100000000100000000000000000000000 D
1$
#61600
b10101 3
0$
#61800
b1000 H
b1111111111111111111111111111111100000001000000000000000000000000 D
1$
#62000
b10110 3
0$
#62200
b111 H
b1111111111111111111111111111111100000010000000000000000000000000 D
1$
#62400
b10111 3
0$
#62600
b110 H
b1111111111111111111111111111111100000100000000000000000000000000 D
1$
#62800
b11000 3
0$
#63000
b101 H
b1111111111111111111111111111111100001000000000000000000000000000 D
1$
#63200
b11001 3
0$
#63400
b100 H
b1111111111111111111111111111111100010000000000000000000000000000 D
1$
#63600
b11010 3
0$
#63800
b11 H
b1111111111111111111111111111111100100000000000000000000000000000 D
1$
#64000
b11011 3
0$
#64200
b10 H
b1111111111111111111111111111111101000000000000000000000000000000 D
1$
#64400
b11100 3
0$
#64600
b1 H
b1111111111111111111111111111111110000000000000000000000000000000 D
1$
#64800
b11101 3
0$
#65000
b0 H
b0 C
b11111111111111111111111111111110 K
b1 D
1$
#65200
b11110 3
0$
#65400
b10 !
b10 8
b10 B
b10 @
b1 >
b11111 H
b11111111111111111111111111111111 K
b1111111111111111111111111111111100000000000000000000000000000010 D
1"
1E
b1 I
b1 C
0J
1$
#65600
b10010111 3
0$
#65800
1$
#66000
b11111111111111111111111111111110 !
b11111111111111111111111111111110 8
b11111111111111111111111111111110 B
b1111111111111111111111111111111111111111111111111111111111111110 @
b1111111111111111111111111111111111111111111111111111111111111111 >
1=
b10 ?
b100 A
b110 4
b11111111111111111111111111111110 )
1&
b10 ,
b10 6
b10 :
b11111111111111111111111111111100 +
b11111111111111111111111111111100 5
b11111111111111111111111111111100 9
0$
#66200
b11110 H
b10 C
b11111111111111111111111111111110 K
0"
0E
1J
b1111111111111111111111111111111000000000000000000000000000001000 D
b11111111111111111111111111111110 G
b10 F
1$
#66400
b0 3
0&
0$
#66600
b11101 H
b11111111111111111111111111111110 C
b11111111111111111111111111111010 K
b1111111111111111111111111111111000000000000000000000000000010000 D
1$
#66800
b1 3
0$
#67000
b11100 H
b1111111111111111111111111111111000000000000000000000000000100000 D
1$
#67200
b10 3
0$
#67400
b11011 H
b1111111111111111111111111111111000000000000000000000000001000000 D
1$
#67600
b11 3
0$
#67800
b11010 H
b1111111111111111111111111111111000000000000000000000000010000000 D
1$
#68000
b100 3
0$
#68200
b11001 H
b1111111111111111111111111111111000000000000000000000000100000000 D
1$
#68400
b101 3
0$
#68600
b11000 H
b1111111111111111111111111111111000000000000000000000001000000000 D
1$
#68800
b110 3
0$
#69000
b10111 H
b1111111111111111111111111111111000000000000000000000010000000000 D
1$
#69200
b111 3
0$
#69400
b10110 H
b1111111111111111111111111111111000000000000000000000100000000000 D
1$
#69600
b1000 3
0$
#69800
b10101 H
b1111111111111111111111111111111000000000000000000001000000000000 D
1$
#70000
b1001 3
0$
#70200
b10100 H
b1111111111111111111111111111111000000000000000000010000000000000 D
1$
#70400
b1010 3
0$
#70600
b10011 H
b1111111111111111111111111111111000000000000000000100000000000000 D
1$
#70800
b1011 3
0$
#71000
b10010 H
b1111111111111111111111111111111000000000000000001000000000000000 D
1$
#71200
b1100 3
0$
#71400
b10001 H
b1111111111111111111111111111111000000000000000010000000000000000 D
1$
#71600
b1101 3
0$
#71800
b10000 H
b1111111111111111111111111111111000000000000000100000000000000000 D
1$
#72000
b1110 3
0$
#72200
b1111 H
b1111111111111111111111111111111000000000000001000000000000000000 D
1$
#72400
b1111 3
0$
#72600
b1110 H
b1111111111111111111111111111111000000000000010000000000000000000 D
1$
#72800
b10000 3
0$
#73000
b1101 H
b1111111111111111111111111111111000000000000100000000000000000000 D
1$
#73200
b10001 3
0$
#73400
b1100 H
b1111111111111111111111111111111000000000001000000000000000000000 D
1$
#73600
b10010 3
0$
#73800
b1011 H
b1111111111111111111111111111111000000000010000000000000000000000 D
1$
#74000
b10011 3
0$
#74200
b1010 H
b1111111111111111111111111111111000000000100000000000000000000000 D
1$
#74400
b10100 3
0$
#74600
b1001 H
b1111111111111111111111111111111000000001000000000000000000000000 D
1$
#74800
b10101 3
0$
#75000
b1000 H
b1111111111111111111111111111111000000010000000000000000000000000 D
1$
#75200
b10110 3
0$
#75400
b111 H
b1111111111111111111111111111111000000100000000000000000000000000 D
1$
#75600
b10111 3
0$
#75800
b110 H
b1111111111111111111111111111111000001000000000000000000000000000 D
1$
#76000
b11000 3
0$
#76200
b101 H
b1111111111111111111111111111111000010000000000000000000000000000 D
1$
#76400
b11001 3
0$
#76600
b100 H
b1111111111111111111111111111111000100000000000000000000000000000 D
1$
#76800
b11010 3
0$
#77000
b11 H
b1111111111111111111111111111111001000000000000000000000000000000 D
1$
#77200
b11011 3
0$
#77400
b10 H
b1111111111111111111111111111111010000000000000000000000000000000 D
1$
#77600
b11100 3
0$
#77800
b1 H
b11111111111111111111111111111111 C
b11111111111111111111111111111011 K
b1111111111111111111111111111111100000000000000000000000000000000 D
1$
#78000
b11101 3
0$
#78200
b0 H
b0 C
b11111111111111111111111111111100 K
b1 D
1$
#78400
b11110 3
0$
#78600
b11111 H
b11111111111111111111111111111110 K
b1111111111111111111111111111111000000000000000000000000000000010 D
1"
1E
b10 C
0J
1$
#78800
b10010111 3
0$
#79000
1$
#79200
b10 !
b10 8
b10 B
b10 @
b1 >
b1000 A
0=
b100 ?
b111 4
b10 )
1&
b100 ,
b100 6
b100 :
b1000 +
b1000 5
b1000 9
0$
#79400
b11110 H
b100 C
b11111111111111111111111111111100 K
0"
0E
1J
b1111111111111111111111111111110000000000000000000000000000010000 D
b11111111111111111111111111111100 G
b100 F
1$
#79600
b0 3
0&
0$
#79800
b11101 H
b11111111111111111111111111111100 C
b11111111111111111111111111110100 K
b1111111111111111111111111111110000000000000000000000000000100000 D
1$
#80000
b1 3
0$
#80200
b11100 H
b1111111111111111111111111111110000000000000000000000000001000000 D
1$
#80400
b10 3
0$
#80600
b11011 H
b1111111111111111111111111111110000000000000000000000000010000000 D
1$
#80800
b11 3
0$
#81000
b11010 H
b1111111111111111111111111111110000000000000000000000000100000000 D
1$
#81200
b100 3
0$
#81400
b11001 H
b1111111111111111111111111111110000000000000000000000001000000000 D
1$
#81600
b101 3
0$
#81800
b11000 H
b1111111111111111111111111111110000000000000000000000010000000000 D
1$
#82000
b110 3
0$
#82200
b10111 H
b1111111111111111111111111111110000000000000000000000100000000000 D
1$
#82400
b111 3
0$
#82600
b10110 H
b1111111111111111111111111111110000000000000000000001000000000000 D
1$
#82800
b1000 3
0$
#83000
b10101 H
b1111111111111111111111111111110000000000000000000010000000000000 D
1$
#83200
b1001 3
0$
#83400
b10100 H
b1111111111111111111111111111110000000000000000000100000000000000 D
1$
#83600
b1010 3
0$
#83800
b10011 H
b1111111111111111111111111111110000000000000000001000000000000000 D
1$
#84000
b1011 3
0$
#84200
b10010 H
b1111111111111111111111111111110000000000000000010000000000000000 D
1$
#84400
b1100 3
0$
#84600
b10001 H
b1111111111111111111111111111110000000000000000100000000000000000 D
1$
#84800
b1101 3
0$
#85000
b10000 H
b1111111111111111111111111111110000000000000001000000000000000000 D
1$
#85200
b1110 3
0$
#85400
b1111 H
b1111111111111111111111111111110000000000000010000000000000000000 D
1$
#85600
b1111 3
0$
#85800
b1110 H
b1111111111111111111111111111110000000000000100000000000000000000 D
1$
#86000
b10000 3
0$
#86200
b1101 H
b1111111111111111111111111111110000000000001000000000000000000000 D
1$
#86400
b10001 3
0$
#86600
b1100 H
b1111111111111111111111111111110000000000010000000000000000000000 D
1$
#86800
b10010 3
0$
#87000
b1011 H
b1111111111111111111111111111110000000000100000000000000000000000 D
1$
#87200
b10011 3
0$
#87400
b1010 H
b1111111111111111111111111111110000000001000000000000000000000000 D
1$
#87600
b10100 3
0$
#87800
b1001 H
b1111111111111111111111111111110000000010000000000000000000000000 D
1$
#88000
b10101 3
0$
#88200
b1000 H
b1111111111111111111111111111110000000100000000000000000000000000 D
1$
#88400
b10110 3
0$
#88600
b111 H
b1111111111111111111111111111110000001000000000000000000000000000 D
1$
#88800
b10111 3
0$
#89000
b110 H
b1111111111111111111111111111110000010000000000000000000000000000 D
1$
#89200
b11000 3
0$
#89400
b101 H
b1111111111111111111111111111110000100000000000000000000000000000 D
1$
#89600
b11001 3
0$
#89800
b100 H
b1111111111111111111111111111110001000000000000000000000000000000 D
1$
#90000
b11010 3
0$
#90200
b11 H
b1111111111111111111111111111110010000000000000000000000000000000 D
1$
#90400
b11011 3
0$
#90600
b10 H
b11111111111111111111111111111101 C
b11111111111111111111111111110101 K
b1111111111111111111111111111110100000000000000000000000000000000 D
1$
#90800
b11100 3
0$
#91000
b1 H
b11111111111111111111111111111110 C
b11111111111111111111111111110110 K
b1111111111111111111111111111111000000000000000000000000000000000 D
1$
#91200
b11101 3
0$
#91400
b0 H
b0 C
b11111111111111111111111111111000 K
b1 D
1$
#91600
b11110 3
0$
#91800
b11111 H
b11111111111111111111111111111100 K
b1111111111111111111111111111110000000000000000000000000000000010 D
1"
1E
b100 C
0J
1$
#92000
b10010111 3
0$
#92200
1$
#92400
b11111111111111111111111111111110 !
b11111111111111111111111111111110 8
b11111111111111111111111111111110 B
b1111111111111111111111111111111111111111111111111111111111111110 @
b1111111111111111111111111111111111111111111111111111111111111111 >
1=
b1000 ?
b10000 A
b1000 4
b11111111111111111111111111111110 )
1&
b11111111111111111111111111111000 ,
b11111111111111111111111111111000 6
b11111111111111111111111111111000 :
b10000 +
b10000 5
b10000 9
0$
#92600
b11110 H
b1000 C
b11111111111111111111111111111000 K
0"
0E
1J
b1111111111111111111111111111100000000000000000000000000000100000 D
b11111111111111111111111111111000 G
b1000 F
1$
#92800
b0 3
0&
0$
#93000
b11101 H
b11111111111111111111111111111000 C
b11111111111111111111111111101000 K
b1111111111111111111111111111100000000000000000000000000001000000 D
1$
#93200
b1 3
0$
#93400
b11100 H
b1111111111111111111111111111100000000000000000000000000010000000 D
1$
#93600
b10 3
0$
#93800
b11011 H
b1111111111111111111111111111100000000000000000000000000100000000 D
1$
#94000
b11 3
0$
#94200
b11010 H
b1111111111111111111111111111100000000000000000000000001000000000 D
1$
#94400
b100 3
0$
#94600
b11001 H
b1111111111111111111111111111100000000000000000000000010000000000 D
1$
#94800
b101 3
0$
#95000
b11000 H
b1111111111111111111111111111100000000000000000000000100000000000 D
1$
#95200
b110 3
0$
#95400
b10111 H
b1111111111111111111111111111100000000000000000000001000000000000 D
1$
#95600
b111 3
0$
#95800
b10110 H
b1111111111111111111111111111100000000000000000000010000000000000 D
1$
#96000
b1000 3
0$
#96200
b10101 H
b1111111111111111111111111111100000000000000000000100000000000000 D
1$
#96400
b1001 3
0$
#96600
b10100 H
b1111111111111111111111111111100000000000000000001000000000000000 D
1$
#96800
b1010 3
0$
#97000
b10011 H
b1111111111111111111111111111100000000000000000010000000000000000 D
1$
#97200
b1011 3
0$
#97400
b10010 H
b1111111111111111111111111111100000000000000000100000000000000000 D
1$
